67
0 0
0.005459 0.0342909
0.015459 0.0969768
0.025459 0.15928
0.035459 0.220955
0.044614 0.276663
0.052443 0.323576
0.059391 0.364562
0.065704 0.401205
0.071534 0.434482
0.076981 0.465046
0.082115 0.493358
0.086989 0.519757
0.091641 0.544503
0.096102 0.567797
0.100397 0.5898
0.104545 0.610645
0.108563 0.63044
0.112464 0.649276
0.11626 0.667231
0.119962 0.684371
0.123576 0.700753
0.127112 0.716427
0.130575 0.731437
0.133971 0.745821
0.137306 0.759614
0.140584 0.772845
0.143808 0.785543
0.146983 0.797731
0.150113 0.809433
0.153199 0.820668
0.156246 0.831455
0.159255 0.84181
0.162229 0.851748
0.16517 0.861284
0.16808 0.870431
0.170961 0.879199
0.173815 0.887601
0.176643 0.895645
0.179447 0.903342
0.182228 0.910699
0.184988 0.917726
0.187729 0.924428
0.19045 0.930813
0.193154 0.936888
0.195841 0.942657
0.198512 0.948126
0.201169 0.953301
0.203813 0.958186
0.206444 0.962785
0.209063 0.967102
0.211671 0.971141
0.21427 0.974905
0.216859 0.978398
0.219439 0.981621
0.222012 0.984577
0.224577 0.987269
0.227137 0.9897
0.229691 0.991869
0.232239 0.99378
0.234784 0.995433
0.237325 0.996831
0.239863 0.997972
0.242399 0.99886
0.244934 0.999493
0.247467 0.999873
0.25 1

# This file contains interpolation data for sin(2*pi*x) for 0<=x<=0.25
# the rest of the unit circle can be done by checking quadrants, which
# hopefully is faster than a full interpolator. The linear interpolation
# error is at most about 4e-4.
