69
0	0
0.0001	0.019999
0.000599975	0.0489741
0.00182433	0.0853463
0.00395798	0.125576
0.00709736	0.167893
0.0112946	0.211349
0.0165782	0.255369
0.022962	0.299565
0.0304503	0.343646
0.0390398	0.387379
0.0487214	0.43057
0.0594809	0.473045
0.0712999	0.51465
0.0841557	0.555242
0.0980226	0.59469
0.112871	0.63287
0.128669	0.669667
0.145382	0.704971
0.162972	0.73868
0.1814		0.770698
0.200624	0.800935
0.220602	0.829305
0.241287	0.855727
0.262632	0.880128
0.284589	0.902437
0.307106	0.922588
0.330132	0.940521
0.353612	0.956181
0.37749		0.969518
0.401708	0.980487
0.426206	0.989049
0.450924	0.995172
0.4758		0.998828
0.5		1
0.5242 0.998828
0.549076 0.995172
0.573794 0.989049
0.598292 0.980487
0.62251 0.969518
0.646388 0.956181
0.669868 0.940521
0.692894 0.922588
0.715411 0.902437
0.737368 0.880128
0.758713 0.855727
0.779398 0.829305
0.799376 0.800935
0.8186 0.770698
0.837028 0.73868
0.854618 0.704971
0.871331 0.669667
0.887129 0.63287
0.901977 0.59469
0.915844 0.555242
0.9287 0.51465
0.940519 0.473045
0.951279 0.43057
0.96096 0.387379
0.96955 0.343646
0.977038 0.299565
0.983422 0.255369
0.988705 0.211349
0.992903 0.167893
0.996042 0.125576
0.998176 0.0853463
0.9994 0.0489741
0.9999 0.019999
1 0

# This file is data for interpolation of sin(arccos(2x-1)), using variable
# step size. The linear interpolation error is max 5e-3 for x=1e-5, and about
# 1e-3 for large x. The data are symmetric about x=0.5
# Patrik 991028
 